%YAML 1.1
%TAG !u! tag:unity3d.com,2011:
--- !u!1045 &1
EditorBuildSettings:
  m_ObjectHideFlags: 0
  serializedVersion: 2
  m_Scenes:
  - enabled: 1
    path: Assets/Scenes/MainMenu.unity
    guid: 3d9452af3c6e4564c9d1e7d4687f9268
  - enabled: 1
    path: Assets/Scenes/Intro.unity
    guid: 95727d6f31f719f4388392226ad982da
  - enabled: 1
    path: Assets/Scenes/Level 1.unity
    guid: 275d831025c07d148b359502da7ed0f5
  - enabled: 1
    path: Assets/Scenes/Level 2.unity
    guid: 9d7521d6a09d1574b96f0a4ef3c5400a
  - enabled: 1
    path: Assets/Scenes/Level 3.unity
    guid: 1323f8e24dbfa0e46ab6c0bac9bfbdd7
  - enabled: 1
    path: Assets/Scenes/Level 4.unity
    guid: 378b0f19e624d2d4782621aac626e872
  - enabled: 1
    path: Assets/Scenes/Level 5.unity
    guid: 604ca65a4691af64ba07df53ed19b31b
  - enabled: 1
    path: Assets/Scenes/Level 6.unity
    guid: a0e4416129dc69447a5fe12071d28422
  - enabled: 1
    path: Assets/Scenes/Level 7.unity
    guid: b83006ed67fb88044a0afae28158d0ef
  - enabled: 1
    path: Assets/Scenes/Ending.unity
    guid: 69725a175d6fce44d9b9844085261845
  m_configObjects: {}
